329.29550218582153,0.0071544647216796875,29155328
329.29550218582153,0.004920482635498047,29421568
329.29550218582153,0.0028357505798339844,29421568
329.29550218582153,0.0041806697845458984,29421568
329.29550218582153,0.0063610076904296875,29421568
329.29550218582153,0.008311986923217773,29421568
329.29550218582153,0.005339860916137695,29421568
329.29550218582153,0.009504079818725586,29421568
329.29550218582153,0.004292726516723633,29421568
329.29550218582153,0.00452876091003418,29421568
