user id,name
p2,Emily
p4,Corey
p5,Nikita
p6,Nikia
p9,Rodney
p11,Stella
p12,Jason
p13,Stanley
p15,Monty
p22,Eric
p25,David
p26,Gary
p31,Elsie
p32,Virgie
p33,Brian
p34,Jennifer
p35,Margaret
p36,Randy
p37,Jeremy
p41,Herman
p44,Colleen
p46,Harvey
p48,Sandra
p51,Charles
p52,Larry
p55,Susan
p58,Rodrigo
p60,Jared
p63,Annie
p64,Robert
p68,Cleora
p70,Lizzie
p72,Andrew
p77,Warren
p80,Christopher
p81,Tony
p84,Cynthia
p87,Clifford
p89,Antonio
p94,Bessie
p95,Lan
p96,Karen
p98,Loretta
p99,Mildred
p102,Thaddeus
p104,Peter
p105,Mike
p110,Tony
p111,Eldon
p114,David
p117,William
p118,Beulah
p119,Timothy
p121,Joseph
p123,Renate
p124,Lawanda
p131,Charles
p133,Hazel
p140,Dale
p143,Rodrigo
p144,Daniel
p145,Michelle
p146,Tonya
p147,Annette
p148,James
p150,Joseph
p151,Jamie
p152,Amy
p153,Nancy
p159,James
p162,Amanda
p164,Richard
p165,Betty
p170,Paul
p171,Linda
p173,Roosevelt
p175,Annette
p176,Robert
p177,Antonia
p179,Doris
p180,Velma
p181,Paul
p182,Fannie
p185,Kim
p186,Bette
p187,Janet
p188,Nancy
p189,Brenda
p193,Mary
p196,Megan
p198,Brendan
p200,Mara
p202,Pamala
p204,Christopher
p206,Marcellus
p210,Henry
p211,Denise
p212,Sheri
p214,James
p218,Christopher
p220,Betty
p222,Clara
p223,Michael
p226,Christopher
p228,Jane
p231,Bradley
p232,Bradley
p237,Rafael
p240,John
p241,Michael
p243,Jimmy
p244,Buford
p246,Erin
p247,Richard
p248,Dennis
p249,Helen
p250,Viola
p251,Andrew
p252,Abbey
p253,Bessie
p256,Robert
p261,Ayesha
p262,Rodney
p265,Ulrike
p268,Lucy
p271,Harold
p277,Joanne
p279,Roberta
p280,Susan
p281,Ross
p282,Todd
p284,Roland
p286,Raymond
p287,Gregory
p288,Patricia
p290,John
p291,Kristie
p293,Thomas
p295,Barbara
p301,Lorraine
p303,Scott
p305,Corey
p306,Martin
p313,Claire
p315,George
p320,Michael
p321,Louise
p323,Jimmie
p329,Charles
p335,Cathy
p337,Louise
p339,Benjamin
p341,Karen
p344,David
p347,John
p350,Edgar
p351,Louise
p352,Diane
p354,Steve
p355,Catherine
p356,Jacque
p357,Leah
p358,Eric
p361,Rodrigo
p365,Antoine
p366,Clara
p369,Veronica
p374,Gloria
p376,Justin
p379,Norma
p380,Kenneth
p382,Alice
p383,John
p384,Steven
p386,Minnie
p392,Steven
p395,Doris
p398,Judy
p401,Willy
p402,Ricardo
p405,Manuel
p406,James
p409,Rosa
p413,James
p414,Jessica
p424,Alison
p428,Judith
p432,Tony
p433,Jimmy
p434,William
p437,Robin
p438,David
p439,Dale
p441,Linda
p442,Jim
p443,David
p444,Charles
p446,Angela
p449,Francisco
p450,Jessica
p453,Georgene
p455,David
p456,Julie
p458,Maria
p460,Nancy
p462,Kim
p463,Arlene
p465,Meghan
p467,John
p469,Kenneth
p471,Anna
p472,Jasmine
p474,Tatum
p475,Teresa
p479,Andrea
p480,Elaine
p481,Eva
p482,Renee
p486,Albert
p487,Michael
p489,Ronald
p493,Troy
p494,Anna
p495,Jeff
p498,Jessica
p499,Darren
p502,William
p503,Joann
p504,Veronica
p505,Sarah
p506,Carla
p507,Bernard
p509,Randy
p510,Gregory
p511,Virgil
p513,James
p514,Lisa
p516,Viola
p517,Ricardo
p518,Jillian
p519,James
p521,John
p522,Lynne
p526,Timothy
p528,Edward
p529,Phyllis
p532,Heather
p533,Janie
p535,Earline
p536,James
p537,Leonard
p539,Leslie
p540,Annie
p544,Robert
p545,John
p546,Mary
p549,Steve
p550,Mary
p551,Kathleen
p553,Frank
p556,Keith
p557,Linda
p558,Richard
p562,Linda
p563,Stacy
p564,James
p567,Donna
p570,Stasia
p573,Ricky
p574,Timothy
p575,Juan
p576,Craig
p577,Jerry
p580,Carmel
p581,Alberta
p582,Jamie
p587,Georgia
p588,William
p589,Myrtle
p591,Belinda
p594,Matthew
p595,Mary
p597,Vernon
p599,Norma
p601,Laverne
p602,Laura
p603,Larry
p605,Mary
p606,Jenifer
p609,Ashley
p611,Sheldon
p612,Bertha
p613,Dina
p616,Helen
p623,Lisa
p626,Earnest
p629,Nancy
p632,Calvin
p633,Grace
p634,John
p636,Cecil
p639,James
p642,Roxanne
p643,Frances
p646,Harold
p652,Gerald
p654,Chad
p656,Willie
p657,Zachary
p661,Laura
p662,John
p664,Dominic
p665,Maxine
p666,Charles
p673,David
p674,Fay
p677,Erin
p678,Florence
p679,Rosie
p690,Tim
p695,Sarah
p697,Paul
p699,Zachary
p700,Christopher
p701,Lee
p706,Hue
p708,Roberta
p712,Timothy
p713,Gary
p716,David
p718,Robert
p724,Gregory
p727,Jeffrey
p730,Vincent
p731,Lorena
p733,Elliott
p734,Shannon
p735,Victor
p737,Heather
p738,Jessie
p740,Mindi
p744,Michele
p746,Charles
p748,Francis
p749,Evelyn
p751,John
p752,Antonio
p756,Cathy
p758,Nicholas
p760,Frank
p762,Fred
p764,Sean
p766,Joshua
p767,Margaret
p769,Maria
p771,Keith
p772,Kenneth
p774,Marie
p775,Kathleen
p779,Wayne
p783,Terry
p784,Cleveland
p785,Kim
p786,Charles
p787,Thomas
p788,Bobby
p790,Leona
p793,James
p795,Charles
p796,Maria
p797,Juanita
p799,Stephanie
p800,Eugene
p801,Luis
p802,Richard
p803,Olga
p804,Alfred
p805,William
p807,Michael
p808,Dolores
p810,Megan
p815,Helen
p818,Margaret
p820,Felipe
p822,Frank
p824,Tawny
p825,Arlene
p828,Terry
p835,Tracy
p836,Scott
p837,George
p838,Margaret
p841,Noe
p844,Fannie
p846,Christie
p847,Brandon
p851,Allan
p852,Darlene
p853,Tammy
p856,Denis
p857,Brenda
p860,Sam
p863,Yvette
p865,Dominique
p866,Michael
p870,Jason
p872,Erick
p874,James
p881,Cynthia
p884,Jorge
p889,Emily
p891,Jason
p894,Lloyd
p896,Ron
p899,David
p901,Brian
p902,Rose
p903,Frank
p906,Michael
p908,Rodney
p910,Robert
p914,James
p915,Barbara
p918,Juanita
p919,Nancy
p920,Alonzo
p921,Robby
p924,Scott
p925,Ruben
p927,Craig
p929,Danny
p930,Brian
p933,Steven
p934,Vincent
p936,Kimberly
p937,Vanessa
p938,Wesley
p945,Elva
p948,Gladys
p950,Jorge
p951,Robert
p956,Lydia
p960,Lois
p963,Al
p974,Jack
p979,Vera
p980,Minh
p981,Ronald
p985,Richard
p987,Dean
p990,James
p991,John
p992,Paul
p994,Darius
p995,Latoya
p996,Dean
p998,Claire
p1000,Byron
p1001,Terence
p1002,Ashley
p1004,Jonathan
p1008,Geraldine
p1013,Emilio
p1022,Michael
p1024,Terry
p1025,Joseph
p1026,Steven
p1027,Stacy
p1028,Justin
p1029,Mario
p1030,David
p1031,Michelle
p1032,Adam
p1033,Bryan
p1034,Christopher
p1035,Karen
p1036,Melissa
p1038,James
p1039,Carl
p1040,Toni
p1043,Joshua
p1046,Roberta
p1048,Helen
p1050,Beverly
p1053,Alfred
p1054,Cleo
p1055,Angela
p1057,John
p1058,Jon
p1060,Mary
p1062,Renee
p1067,Floyd
p1070,Pamela
p1072,Kyle
p1073,Catherine
p1074,Lisa
p1075,Marie
p1080,Rex
p1084,Andrew
p1085,Mitchell
p1086,James
p1088,Anthony
p1089,Henry
p1092,Robert
p1093,Maurice
p1094,Robert
p1096,Tiffany
p1097,Marie
p1098,Tonia
p1102,Jonathan
p1104,Marion
p1107,Agnes
p1108,James
p1109,Anthony
p1113,Bethany
p1114,Carrie
p1119,Arlene
p1120,Connie
p1123,Matilde
p1124,Bertha
p1126,James
p1129,Russ
p1130,Julio
p1132,David
p1133,Thomas
p1134,Phyllis
p1136,Jennifer
p1138,Todd
p1140,Robert
p1143,Larue
p1144,Ursula
p1145,Lena
p1146,Mavis
p1148,John
p1149,Richard
p1150,Ingrid
p1152,Jeffrey
p1153,Laura
p1154,Ruth
p1155,Ginger
p1156,Diane
p1157,Elaine
p1158,Tracie
p1160,Kevin
p1163,Angelita
p1165,Brian
p1167,Celia
p1168,Betty
p1169,Clare
p1171,Christa
p1172,Jeanene
p1173,Shirley
p1179,Daniel
p1186,Pamela
p1188,Hazel
p1189,Kenny
p1191,Stephen
p1194,Duane
p1201,Nakesha
p1202,Linda
p1203,Theresa
p1204,Erin
p1205,David
p1206,Kayla
p1207,Siobhan
p1208,Sherry
p1209,Jerry
p1214,Rachel
p1216,Philip
p1217,Laura
p1219,Mason
p1221,Lydia
p1226,Clyde
p1229,Nichole
p1232,Shelly
p1235,Jon
p1237,Michael
p1238,Lisa
p1241,Shaun
p1242,Kristine
p1244,Williams
p1245,Dorothy
p1247,Linda
p1248,Bonnie
p1249,Joyce
p1251,Robert
p1252,Willard
p1254,Jose
p1257,Charles
p1265,Christopher
p1266,Mariana
p1269,Cheryl
p1273,Darrell
p1274,Jack
p1275,Jason
p1276,Earl
p1278,Donald
p1279,Brad
p1280,Jodi
p1282,Ronald
p1285,Robert
p1288,Lisa
p1292,Edward
p1293,Kevin
p1297,Armando
p1299,Cassi
p1302,Michael
p1303,Charles
p1306,Marcella
p1311,Brian
p1313,Norma
p1314,Darrell
p1315,Mary
p1316,Kerri
p1317,Robert
p1320,Justin
p1322,Judy
p1324,George
p1325,James
p1326,Sarah
p1327,Ernest
p1328,Ethel
p1329,Gerald
p1330,Carmelo
p1334,Ronald
p1335,Mathew
p1336,Jose
p1337,Wendy
p1338,Tonya
p1339,Martha
p1344,Santos
p1350,Irene
p1351,James
p1352,Doris
p1353,Ruth
p1354,Derrick
p1356,Elizabeth
p1357,Donald
p1358,Paula
p1360,Wiley
p1361,Angela
p1362,John
p1368,Elizabeth
p1369,Christina
p1370,Mark
p1372,Ann
p1373,Crystal
p1374,Sharon
p1377,James
p1378,Imogene
p1383,Henry
p1385,Cathy
p1388,Samantha
p1389,Kate
p1391,Craig
p1397,Kitty
p1398,Tanya
p1399,Phillip
p1403,James
p1407,Scott
p1408,Lloyd
p1410,Carl
p1413,Denise
p1414,Cynthia
p1415,Guillermo
p1416,Kevin
p1421,Kimberly
p1422,Evelyn
p1426,David
p1431,John
p1435,Josefina
p1436,Alecia
p1441,Susan
p1444,Pablo
p1445,Dalia
p1446,Jorge
p1449,Gladys
p1451,Derrick
p1453,Dennis
p1454,Helen
p1456,Keith
p1457,Christina
p1459,Johnny
p1460,Latoya
p1461,Deborah
p1464,Robert
p1465,Georgia
p1467,Jesica
p1469,Herschel
p1470,Michelle
p1472,Dominick
p1473,Paul
p1474,Richard
p1475,William
p1476,Steven
p1477,Brock
p1486,Millicent
p1491,Paul
p1493,Forrest
p1494,Charles
p1497,Richard
p1499,Terry
p1500,James
p1502,Charles
p1503,Agnes
p1504,Kristen
p1505,Michael
p1506,David
p1507,Judson
p1508,Minnie
p1509,Nancy
p1510,Joseph
p1511,Lorenzo
p1515,Lorie
p1516,Odell
p1517,Marcus
p1519,Joanna
p1520,Jennifer
p1521,Donald
p1525,Doris
p1526,Paul
p1529,Emma
p1530,Stephanie
p1534,Jimmy
p1535,James
p1537,Warren
p1538,Margaret
p1540,Debra
p1542,Betty
p1543,Jeffrey
p1546,Mary
p1550,Roger
p1551,Despina
p1552,Terry
p1555,Alicia
p1556,Lore
p1557,Robert
p1558,James
p1559,Beatrice
p1561,Brenda
p1563,Sophia
p1564,Alfonso
p1568,Edward
p1570,Randy
p1571,Carol
p1572,Geoffrey
p1573,Virginia
p1574,Elias
p1576,Jeffrey
p1579,Samuel
p1580,Opal
p1581,Clint
p1582,James
p1583,Lola
p1584,Denise
p1585,George
p1586,Willie
p1587,John
p1592,Ami
p1594,Kevin
p1596,Henry
p1598,Dana
p1601,John
p1602,Ruth
p1603,Judie
p1605,Mildred
p1608,Robert
p1610,Marc
p1611,Frank
p1612,Benjamin
p1613,Elliot
p1617,Thomas
p1618,Viola
p1619,Lloyd
p1621,Hugh
p1624,Keith
p1625,Francisco
p1626,Hugh
p1629,Nancy
p1631,Robert
p1634,Damon
p1635,Stephanie
p1637,Bonnie
p1639,Shannon
p1641,Vicki
p1642,Rebecca
p1644,Hector
p1645,Edward
p1647,Derrick
p1649,Christopher
p1650,David
p1653,Patrick
p1654,Charles
p1656,Antonio
p1657,Mike
p1660,Charles
p1661,Theodore
p1662,Willie
p1665,Erwin
p1666,Terrence
p1667,James
p1670,Mary
p1672,Nancy
p1675,Virginia
p1676,Lynda
p1677,Gregory
p1679,Christopher
p1680,Keith
p1681,John
p1684,Benjamin
p1685,Shawn
p1686,Martine
p1688,Mark
p1689,Francis
p1693,Eric
p1698,Luis
p1699,Mark
p1701,Pete
p1702,Jeffery
p1704,Courtney
p1706,Monica
p1707,Lea
p1709,Richard
p1710,Mai
p1712,Karen
p1716,Keith
p1719,Randy
p1720,James
p1721,William
p1723,Eric
p1724,Silvia
p1725,Candice
p1728,Synthia
p1731,Jason
p1732,Angela
p1734,Joan
p1736,Judy
p1737,Freddie
p1739,Jane
p1743,Terry
p1748,Holly
p1750,Aaron
p1752,Anna
p1755,Janice
p1756,Louise
p1759,Keith
p1760,Anne
p1761,Jonnie
p1762,Warren
p1763,Johnny
p1764,Mae
p1765,Michael
p1766,Marie
p1769,Monique
p1770,Mary
p1771,Bertha
p1773,Harold
p1774,Colleen
p1775,Janet
p1778,Jeff
p1779,Betty
p1780,Robbie
p1781,Nelson
p1782,Nereida
p1784,Xiomara
p1786,Tamara
p1788,Hazel
p1790,Fletcher
p1792,Dennis
p1793,Shirley
p1794,Jorge
p1795,Henry
p1797,Victoria
p1798,Janet
p1799,Maria
p1802,Alana
p1803,Harry
p1804,Miriam
p1806,Amy
p1811,Joan
p1812,Christopher
p1813,Roberta
p1814,Willie
p1815,Heather
p1816,Vernell
p1817,Joseph
p1818,Dorothy
p1820,Annabelle
p1821,Stuart
p1826,Dorothy
p1828,Margret
p1829,Donna
p1831,Billy
p1832,Darryl
p1833,Steven
p1834,Richard
p1836,Stanley
p1837,Emma
p1838,Willie
p1839,Alexis
p1841,Kayla
p1843,James
p1844,Philip
p1845,Sergio
p1847,Jesus
p1848,Rachael
p1849,Anna
p1853,Audra
p1856,William
p1857,Debbie
p1860,Kevin
p1862,Danny
p1863,William
p1864,Neil
p1867,Christopher
p1869,Douglas
p1872,Jennifer
p1874,Gretchen
p1875,Antoinette
p1876,Elizabeth
p1880,Herman
p1882,Johnny
p1883,Kari
p1884,Anna
p1886,Scott
p1887,Lynne
p1889,Warren
p1890,Jon
p1893,Irene
p1894,Edna
p1896,Sidney
p1898,Rodney
p1899,Richard
p1905,Brad
p1907,David
p1910,Ismael
p1911,Robert
p1912,Walter
p1913,Pablo
p1915,Guillermo
p1916,Michael
p1919,Sharon
p1921,Paul
p1922,Mildred
p1925,Linda
p1926,Michael
p1927,Stefani
p1937,Helen
p1939,Victoria
p1940,Donald
p1941,Marjory
p1942,Dianna
p1943,Douglas
p1944,Darrin
p1947,Margart
p1950,Dorothy
p1953,Krista
p1954,James
p1956,Richard
p1957,Michael
p1959,Albert
p1961,James
p1962,Deborah
p1965,Robert
p1967,Cedrick
p1968,Tom
p1969,Lois
p1970,Thomas
p1971,Clifton
p1972,Rita
p1973,James
p1974,Melissa
p1976,Robert
p1977,David
p1978,Keith
p1979,John
p1980,Perry
p1981,Brandon
p1982,Shannon
p1983,Emanuel
p1985,Kathryn
p1987,Mildred
p1994,Margarita
p1995,Federico
p1998,Irene
p2000,Amie
p2001,Kathy
p2003,Nancy
p2006,Jerry
p2008,Carolyn
p2010,Daniel
p2011,Roberto
p2012,Kathleen
p2016,Yvonne
p2017,Nancy
p2018,Robert
p2019,Kyle
p2020,Wayne
p2021,Barbara
p2025,Richard
p2027,Erica
p2028,Barbara
p2029,Thelma
p2030,Francisco
p2031,Robert
p2032,Michael
p2036,Pam
p2039,Raymon
p2042,Susie
p2043,Paul
p2044,Judy
p2045,Taylor
p2048,Nancy
p2049,Wayne
p2050,James
p2051,Christopher
p2052,Patricia
p2053,John
p2054,Shirley
p2058,Ervin
p2059,Jennifer
p2061,Amy
p2063,Laura
p2065,Bessie
p2066,Jeffrey
p2068,Lois
p2069,Patrick
p2071,Albert
p2072,Lawrence
p2076,Phyllis
p2077,Donna
p2079,Rex
p2081,Calvin
p2082,Steven
p2084,Steven
p2085,Robin
p2090,Loretta
p2092,Sharon
p2093,Blaine
p2099,Christopher
p2102,Amanda
p2103,Salvador
p2105,Rebecca
p2107,Francisco
p2108,Maryann
p2112,Thomas
p2113,Carla
p2118,Rosa
p2121,Myron
p2122,William
p2126,David
p2128,Geraldine
p2129,Beulah
p2130,Cynthia
p2131,Sara
p2132,Jerry
p2140,Shirley
p2141,Rene
p2142,Maria
p2144,Catherine
p2148,Lawrence
p2149,Harry
p2150,Martha
p2151,William
p2152,Ramon
p2155,Marshall
p2157,Jason
p2159,Lillian
p2161,Christine
p2163,Anna
p2166,Scott
p2168,Mary
p2171,William
p2172,Jason
p2173,Virginia
p2175,Andrea
p2176,Andrew
p2177,Trinidad
p2178,John
p2179,Annette
p2180,Helen
p2182,William
p2183,James
p2185,Mary
p2186,Dierdre
p2187,Corey
p2189,Vicki
p2190,Cynthia
p2191,Joseph
p2192,Roxanne
p2193,Julie
p2195,Adriana
p2196,Charles
p2199,Gregory
p2200,David
p2201,Aileen
p2202,James
p2207,Christopher
p2211,Johnathan
p2213,Phillip
p2214,Cynthia
p2219,Michael
p2221,Carey
p2223,Todd
p2224,Linda
p2226,Gladys
p2227,Kristopher
p2232,Robert
p2234,Debra
p2235,Donna
p2238,Charlotte
p2239,Dale
p2240,George
p2241,Gerald
p2243,Thomas
p2246,Hue
p2247,Jerry
p2249,Jason
p2250,Luke
p2252,Rene
p2254,Lynn
p2255,Crystal
p2257,Kevin
p2258,Bobby
p2260,Lonnie
p2261,Lee
p2264,Katina
p2265,Patricia
p2266,Grace
p2267,Anita
p2269,Raymond
p2270,Catrina
p2274,Elizabeth
p2276,Michael
p2277,Rita
p2278,Jerry
p2280,Margaret
p2282,Thomas
p2286,Ester
p2287,Claude
p2290,Joseph
p2291,Dennis
p2292,Lloyd
p2293,Donald
p2294,Mark
p2297,Bill
p2298,Tom
p2299,Dirk
p2301,Lori
p2302,William
p2303,Jacqueline
p2304,Monica
p2305,Kim
p2307,Lana
p2310,Jennifer
p2311,Cheryl
p2314,Mary
p2316,John
p2317,James
p2318,Thomas
p2320,Linda
p2321,Eliza
p2323,Matthew
p2324,Keri
p2325,John
p2327,Kenneth
p2328,Antonio
p2332,Patricia
p2333,Holly
p2335,David
p2336,Micheal
p2337,James
p2338,James
p2339,Clara
p2340,Willie
p2341,Kathy
p2342,Lisa
p2343,Jennifer
p2345,Henry
p2347,Joseph
p2348,Justina
p2350,Steven
p2351,Christy
p2352,Harriet
p2356,Gordon
p2357,Gary
p2358,Nita
p2361,Micheal
p2363,Minnie
p2365,Jennifer
p2368,Ruby
p2373,Beth
p2374,Willie
p2376,Brian
p2379,Jeanne
p2380,Teresa
p2381,Mary
p2383,Alicia
p2385,Christina
p2387,Michele
p2388,Madge
p2390,Lisa
p2391,John
p2395,Adelaida
p2396,Julia
p2397,Lesa
p2399,Shayne
p2401,Earnest
p2402,Kimberly
p2405,Debrah
p2406,Omar
p2408,Dawn
p2409,Sheri
p2415,Sophie
p2419,Megan
p2424,Angela
p2426,Jake
p2427,Christopher
p2429,Joseph
p2430,Brenda
p2431,Antonio
p2432,Theda
p2433,William
p2435,Helen
p2436,Louise
p2437,Wayne
p2438,Gary
p2441,John
p2443,Martha
p2444,Jessica
p2445,John
p2446,Brandon
p2447,Richard
p2450,Pearl
p2451,Jonathan
p2453,Teresa
p2454,Terry
p2459,Louis
p2460,Raymond
p2461,Elizabeth
p2462,Julian
p2463,Roger
p2464,Jennifer
p2468,Wayne
p2469,Jennie
p2470,Edward
p2471,Kandra
p2472,Julie
p2474,Mary
p2478,William
p2479,Angela
p2480,Charles
p2481,Jessica
p2485,Arnoldo
p2486,Mark
p2487,Ruth
p2490,Alisha
p2491,Charles
p2492,Josephine
p2495,Christopher
p2496,Victor
p2497,Mary
p2499,Betty
